Read and tidy a SPECTRAmax file — read_spectramax • mop
…
#> 
#> 
#> Start corner: tl
#> Plate dimensions: 8 x 12
#> 
#> [[1]]$type
#> [1] "Plate"
#> 
#> [[1]]$wavelengths
#> [1] "450"
#> 
#> 
#> [[2]]
#> [[2]]$data
#> # A tibble: 32 × 8
#>    Sample Wells Values R     Result MeanResult Std.Dev. `CV%`
#>    <chr>  <chr>  <dbl> <chr> <chr>  <chr>      <chr>    <chr>
#>  1 Gr01   A3    -0.005 R     Error  Error      Error    Error
#>  2 NA     A4    -0.003 R     NA     NA         NA       NA   
#>  3 NA     A5     0.007 R     NA     NA         NA       NA   
#>  4 NA     A6     0.036 NA    NA     NA         NA       NA   
#>  5 NA     B3     0.001 R     NA     NA         NA       NA   
#>  6 NA     B4    -0.003 R     NA     NA         NA       NA   
#>  7 NA     B5     0.014 R     NA     NA         NA       NA   
#>  8 NA     B6     0.013 R     NA     NA         NA       NA   
#>  9 NA     C3     0.005 R     NA     NA         NA       NA   
#> 10 NA     C4     0.006 R     NA     NA         NA       NA   
#> # ℹ 22 more rows
…
