Read and tidy a Synergy2 file — read_synergy2 • mop
…
wavelengths
a numeric vector containing the wavelengths read

metadata
A list containing residual, non-well data

    Examples

system.file("extdata", "bca-assay-all-export.txt", package = "mop") |>
  read_synergy2()
#> $data
#> # A tibble: 96 × 8
#>     .row  .col WellID `Conc/Dil` Name  nm562 Blank562 Conc  
#>    <int> <dbl> <chr>       <dbl> <lgl> <dbl>    <dbl> <chr> 
#>  1     1     1 BLK            NA NA    0.091    0.001 <0.000
#>  2     1     2 STD1            0 NA    0.092    0.002 <0.000
#>  3     1     3 STD2           10 NA    0.142    0.051 10.704
#>  4     1     4 STD3           25 NA    0.198    0.108 26.815
#>  5     1     5 STD4           50 NA    0.288    0.197 52.708
#>  6     1     6 STD5          100 NA    0.438    0.348 95.863
#>  7     1     7 SPL1           NA NA    0.096    0.006 <0.000
#>  8     1     8 SPL2           NA NA    0.112    0.022 2.073 
#>  9     1     9 SPL3           NA NA    0.387    0.296 81.190
#> 10     1    10 SPL4           NA NA    0.222    0.132 33.720
#> # ℹ 86 more rows
…
